simulation/qsim/Lab6.msim.vcd
$comment
	File created using the following command:
		vcd file Lab6.msim.vcd -direction
$end
$date
	Fri Nov 29 13:15:37 2024
$end
$version
	ModelSim Version 10.1d
$end
$timescale
	1ps
$end
$scope module Problem1BDF_vlg_vec_tst $end
$var reg 8 ! A [7:0] $end
$var reg 8 " B [7:0] $end
$var reg 1 # clk $end
$var reg 1 $ data_in $end
$var reg 1 % En $end
$var reg 1 & reset_A $end
$var reg 1 ' reset_B $end
$var reg 1 ( reset_FSM $end
$var wire 1 ) first_four [1] $end
$var wire 1 * first_four [2] $end
$var wire 1 + first_four [3] $end
$var wire 1 , first_four [4] $end
$var wire 1 - first_four [5] $end
$var wire 1 . first_four [6] $end
$var wire 1 / first_four [7] $end
$var wire 1 0 second_four [1] $end
$var wire 1 1 second_four [2] $end
$var wire 1 2 second_four [3] $end
$var wire 1 3 second_four [4] $end
$var wire 1 4 second_four [5] $end
$var wire 1 5 second_four [6] $end
$var wire 1 6 second_four [7] $end
$var wire 1 7 sign [1] $end
$var wire 1 8 sign [2] $end
$var wire 1 9 sign [3] $end
$var wire 1 : sign [4] $end
$var wire 1 ; sign [5] $end
$var wire 1 < sign [6] $end
$var wire 1 = sign [7] $end
$var wire 1 > std_in [1] $end
$var wire 1 ? std_in [2] $end
$var wire 1 @ std_in [3] $end
$var wire 1 A std_in [4] $end
$var wire 1 B std_in [5] $end
$var wire 1 C std_in [6] $end
$var wire 1 D std_in [7] $end
$var wire 1 E sampler $end
$scope module i1 $end
$var wire 1 F gnd $end
$var wire 1 G vcc $end
$var wire 1 H unknown $end
$var tri1 1 I devclrn $end
$var tri1 1 J devpor $end
$var tri1 1 K devoe $end
$var wire 1 L inst4|Add2~4_combout $end
$var wire 1 M inst4|Add2~8_combout $end
$var wire 1 N inst4|Add1~10_combout $end
$var wire 1 O inst3|WideOr9~0_combout $end
$var wire 1 P inst4|Selector6~1_combout $end
$var wire 1 Q inst4|Selector5~0_combout $end
$var wire 1 R inst4|Selector5~2_combout $end
$var wire 1 S inst4|Selector4~0_combout $end
$var wire 1 T inst4|Selector3~3_combout $end
$var wire 1 U inst4|Selector3~4_combout $end
$var wire 1 V inst4|Selector2~0_combout $end
$var wire 1 W inst4|Selector2~2_combout $end
$var wire 1 X inst4|Selector1~0_combout $end
$var wire 1 Y inst4|Selector0~0_combout $end
$var wire 1 Z inst4|Selector7~6_combout $end
$var wire 1 [ inst4|Selector7~19_combout $end
$var wire 1 \ clk~combout $end
$var wire 1 ] reset_A~combout $end
$var wire 1 ^ reset_B~combout $end
$var wire 1 _ reset_FSM~combout $end
$var wire 1 ` data_in~combout $end
$var wire 1 a inst3|state.s4~regout $end
$var wire 1 b inst3|state.s5~regout $end
$var wire 1 c inst3|state.s6~regout $end
$var wire 1 d inst3|state.s7~feeder_combout $end
$var wire 1 e inst3|state.s7~regout $end
$var wire 1 f inst3|state.s0~0_combout $end
$var wire 1 g inst3|state.s0~regout $end
$var wire 1 h inst3|state.s1~0_combout $end
$var wire 1 i inst3|state.s1~regout $end
$var wire 1 j inst3|state.s2~regout $end
$var wire 1 k inst3|state.s3~regout $end
$var wire 1 l inst4|Selector6~0_combout $end
$var wire 1 m inst4|result[3]~1_combout $end
$var wire 1 n reset_B~clk_delay_ctrl_clkout $end
$var wire 1 o reset_B~clkctrl_outclk $end
$var wire 1 p inst4|Selector7~15_combout $end
$var wire 1 q inst4|result[3]~2_combout $end
$var wire 1 r inst4|Selector6~4_combout $end
$var wire 1 s reset_A~clk_delay_ctrl_clkout $end
$var wire 1 t reset_A~clkctrl_outclk $end
$var wire 1 u inst4|Add2~1 $end
$var wire 1 v inst4|Add2~2_combout $end
$var wire 1 w inst4|Selector6~5_combout $end
$var wire 1 x inst4|LessThan0~1_cout $end
$var wire 1 y inst4|LessThan0~3_cout $end
$var wire 1 z inst4|LessThan0~5_cout $end
$var wire 1 { inst4|LessThan0~7_cout $end
$var wire 1 | inst4|LessThan0~9_cout $end
$var wire 1 } inst4|LessThan0~11_cout $end
$var wire 1 ~ inst4|LessThan0~13_cout $end
$var wire 1 !! inst4|LessThan0~14_combout $end
$var wire 1 "! inst4|result[3]~0_combout $end
$var wire 1 #! inst4|Add1~1 $end
$var wire 1 $! inst4|Add1~2_combout $end
$var wire 1 %! inst4|Selector6~3_combout $end
$var wire 1 &! inst4|Selector6~6_combout $end
$var wire 1 '! inst4|Add0~1 $end
$var wire 1 (! inst4|Add0~2_combout $end
$var wire 1 )! inst4|Selector6~2_combout $end
$var wire 1 *! inst4|Selector6~7_combout $end
$var wire 1 +! En~combout $end
$var wire 1 ,! inst4|Add0~3 $end
$var wire 1 -! inst4|Add0~4_combout $end
$var wire 1 .! inst4|Selector5~1_combout $end
$var wire 1 /! inst4|Add1~3 $end
$var wire 1 0! inst4|Add1~4_combout $end
$var wire 1 1! inst4|result~3_combout $end
$var wire 1 2! inst4|Selector5~3_combout $end
$var wire 1 3! inst4|Selector5~4_combout $end
$var wire 1 4! inst4|Selector5~5_combout $end
$var wire 1 5! inst4|Add0~5 $end
$var wire 1 6! inst4|Add0~6_combout $end
$var wire 1 7! inst4|Selector4~1_combout $end
$var wire 1 8! inst4|Selector4~3_combout $end
$var wire 1 9! inst4|Add2~3 $end
$var wire 1 :! inst4|Add2~5 $end
$var wire 1 ;! inst4|Add2~6_combout $end
$var wire 1 <! inst4|Selector4~4_combout $end
$var wire 1 =! inst4|Add1~5 $end
$var wire 1 >! inst4|Add1~6_combout $end
$var wire 1 ?! inst4|Selector4~2_combout $end
$var wire 1 @! inst4|Selector4~5_combout $end
$var wire 1 A! inst4|Selector4~6_combout $end
$var wire 1 B! inst4|Selector7~12_combout $end
$var wire 1 C! inst4|Selector7~13_combout $end
$var wire 1 D! inst4|Add2~0_combout $end
$var wire 1 E! inst4|Add1~0_combout $end
$var wire 1 F! inst4|Selector7~16_combout $end
$var wire 1 G! inst4|Selector7~17_combout $end
$var wire 1 H! inst4|Add0~0_combout $end
$var wire 1 I! inst4|Selector7~14_combout $end
$var wire 1 J! inst4|Selector7~18_combout $end
$var wire 1 K! inst5|Mux0~0_combout $end
$var wire 1 L! inst5|Mux1~0_combout $end
$var wire 1 M! inst5|Mux2~0_combout $end
$var wire 1 N! inst5|Mux3~0_combout $end
$var wire 1 O! inst5|Mux4~0_combout $end
$var wire 1 P! inst5|Mux5~0_combout $end
$var wire 1 Q! inst5|Mux6~0_combout $end
$var wire 1 R! inst4|Add0~7 $end
$var wire 1 S! inst4|Add0~9 $end
$var wire 1 T! inst4|Add0~11 $end
$var wire 1 U! inst4|Add0~13 $end
$var wire 1 V! inst4|Add0~14_combout $end
$var wire 1 W! inst4|Selector0~1_combout $end
$var wire 1 X! inst4|Add1~7 $end
$var wire 1 Y! inst4|Add1~9 $end
$var wire 1 Z! inst4|Add1~11 $end
$var wire 1 [! inst4|Add1~13 $end
$var wire 1 \! inst4|Add1~14_combout $end
$var wire 1 ]! inst4|Selector0~2_combout $end
$var wire 1 ^! inst4|Add2~7 $end
$var wire 1 _! inst4|Add2~9 $end
$var wire 1 `! inst4|Add2~11 $end
$var wire 1 a! inst4|Add2~13 $end
$var wire 1 b! inst4|Add2~14_combout $end
$var wire 1 c! inst4|Selector0~3_combout $end
$var wire 1 d! inst4|Selector0~4_combout $end
$var wire 1 e! inst4|Selector0~5_combout $end
$var wire 1 f! inst4|Selector0~6_combout $end
$var wire 1 g! inst4|Add0~10_combout $end
$var wire 1 h! inst4|Selector2~1_combout $end
$var wire 1 i! inst4|Add2~10_combout $end
$var wire 1 j! inst4|result~4_combout $end
$var wire 1 k! inst4|Selector2~3_combout $end
$var wire 1 l! inst4|Selector2~4_combout $end
$var wire 1 m! inst4|Selector2~5_combout $end
$var wire 1 n! inst4|Add0~12_combout $end
$var wire 1 o! inst4|Selector1~1_combout $end
$var wire 1 p! inst4|Selector1~2_combout $end
$var wire 1 q! inst4|Add2~12_combout $end
$var wire 1 r! inst4|Selector1~3_combout $end
$var wire 1 s! inst4|Add1~12_combout $end
$var wire 1 t! inst4|Selector1~4_combout $end
$var wire 1 u! inst4|Selector1~5_combout $end
$var wire 1 v! inst4|Selector1~6_combout $end
$var wire 1 w! inst4|Selector3~0_combout $end
$var wire 1 x! inst4|Add0~8_combout $end
$var wire 1 y! inst4|Selector3~1_combout $end
$var wire 1 z! inst4|Add1~8_combout $end
$var wire 1 {! inst4|Selector3~2_combout $end
$var wire 1 |! inst4|Selector3~5_combout $end
$var wire 1 }! inst4|Selector3~6_combout $end
$var wire 1 ~! inst6|Mux0~0_combout $end
$var wire 1 !" inst6|Mux1~0_combout $end
$var wire 1 "" inst6|Mux2~0_combout $end
$var wire 1 #" inst6|Mux3~0_combout $end
$var wire 1 $" inst6|Mux4~0_combout $end
$var wire 1 %" inst6|Mux5~0_combout $end
$var wire 1 &" inst6|Mux6~0_combout $end
$var wire 1 '" clk~clk_delay_ctrl_clkout $end
$var wire 1 (" clk~clkctrl_outclk $end
$var wire 1 )" inst4|Selector8~0_combout $end
$var wire 1 *" inst4|Selector8~1_combout $end
$var wire 1 +" inst4|Neg~regout $end
$var wire 1 ," inst4|Selector7~11_combout $end
$var wire 1 -" inst3|Selector10~0_combout $end
$var wire 1 ." inst3|Selector9~0_combout $end
$var wire 1 /" inst3|Selector9~1_combout $end
$var wire 1 0" inst3|Selector8~0_combout $end
$var wire 1 1" inst3|Selector8~1_combout $end
$var wire 1 2" inst7|Mux0~0_combout $end
$var wire 1 3" inst7|Mux1~0_combout $end
$var wire 1 4" inst7|Mux2~0_combout $end
$var wire 1 5" inst7|Mux3~0_combout $end
$var wire 1 6" inst7|Mux4~0_combout $end
$var wire 1 7" inst7|Mux5~0_combout $end
$var wire 1 8" inst7|Mux6~0_combout $end
$var wire 1 9" inst4|result [7] $end
$var wire 1 :" inst4|result [6] $end
$var wire 1 ;" inst4|result [5] $end
$var wire 1 <" inst4|result [4] $end
$var wire 1 =" inst4|result [3] $end
$var wire 1 >" inst4|result [2] $end
$var wire 1 ?" inst4|result [1] $end
$var wire 1 @" inst4|result [0] $end
$var wire 1 A" inst|Q [7] $end
$var wire 1 B" inst|Q [6] $end
$var wire 1 C" inst|Q [5] $end
$var wire 1 D" inst|Q [4] $end
$var wire 1 E" inst|Q [3] $end
$var wire 1 F" inst|Q [2] $end
$var wire 1 G" inst|Q [1] $end
$var wire 1 H" inst|Q [0] $end
$var wire 1 I" inst1|Q [7] $end
$var wire 1 J" inst1|Q [6] $end
$var wire 1 K" inst1|Q [5] $end
$var wire 1 L" inst1|Q [4] $end
$var wire 1 M" inst1|Q [3] $end
$var wire 1 N" inst1|Q [2] $end
$var wire 1 O" inst1|Q [1] $end
$var wire 1 P" inst1|Q [0] $end
$var wire 1 Q" B~combout [7] $end
$var wire 1 R" B~combout [6] $end
$var wire 1 S" B~combout [5] $end
$var wire 1 T" B~combout [4] $end
$var wire 1 U" B~combout [3] $end
$var wire 1 V" B~combout [2] $end
$var wire 1 W" B~combout [1] $end
$var wire 1 X" B~combout [0] $end
$var wire 1 Y" A~combout [7] $end
$var wire 1 Z" A~combout [6] $end
$var wire 1 [" A~combout [5] $end
$var wire 1 \" A~combout [4] $end
$var wire 1 ]" A~combout [3] $end
$var wire 1 ^" A~combout [2] $end
$var wire 1 _" A~combout [1] $end
$var wire 1 `" A~combout [0] $end
$upscope $end
$upscope $end
$enddefinitions $end
#0
$dumpvars
b100011 !
b1001100 "
0#
1$
1%
1&
1'
1(
1/
0.
0-
0,
0+
0*
0)
16
05
04
03
02
01
00
1=
1<
1;
1:
19
18
17
1D
0C
0B
0A
0@
0?
0>
xE
0F
1G
xH
1I
1J
1K
0L
0M
0N
1O
0P
0Q
0R
0S
0T
0U
0V
0W
0X
0Y
0Z
0[
0\
1]
1^
1_
1`
0a
0b
0c
0d
0e
1f
0g
1h
0i
0j
0k
0l
1m
1n
1o
1p
0q
0r
1s
1t
1u
0v
0w
0x
1y
0z
1{
0|
1}
0~
0!!
0"!
1#!
0$!
0%!
0&!
0'!
0(!
0)!
0*!
1+!
1,!
0-!
0.!
0/!
00!
01!
02!
03!
04!
05!
06!
07!
08!
09!
1:!
0;!
0<!
1=!
0>!
0?!
0@!
0A!
0B!
0C!
0D!
0E!
1F!
1G!
0H!
0I!
0J!
0K!
0L!
0M!
0N!
0O!
0P!
0Q!
1R!
0S!
1T!
0U!
0V!
0W!
0X!
1Y!
0Z!
1[!
0\!
0]!
0^!
1_!
0`!
1a!
0b!
0c!
0d!
0e!
0f!
0g!
0h!
0i!
0j!
0k!
0l!
0m!
0n!
0o!
0p!
0q!
0r!
0s!
0t!
0u!
0v!
0w!
0x!
0y!
0z!
0{!
0|!
0}!
0~!
0!"
0""
0#"
0$"
0%"
0&"
0'"
0("
0)"
0*"
0+"
1,"
1-"
0."
0/"
00"
01"
12"
03"
04"
05"
06"
07"
18"
0@"
0?"
0>"
0="
0<"
0;"
0:"
09"
0H"
0G"
0F"
0E"
0D"
0C"
0B"
0A"
0P"
0O"
0N"
0M"
0L"
0K"
0J"
0I"
0X"
0W"
1V"
1U"
0T"
0S"
1R"
0Q"
1`"
1_"
0^"
0]"
0\"
1["
0Z"
0Y"
$end
#10000
1#
1\
0E
1'"
1("
1C"
1N"
1G"
1M"
1J"
1H"
1i
1g
1i!
1g!
1W
1Z!
1N
10!
1-!
1z
1R
0:!
1L
1(!
1/!
1$!
1v
1r
1>!
1^!
1;!
18!
16!
0{
1p!
0a!
1q!
1s!
1n!
1~
1H!
0#!
1E!
1D!
1Z
0,"
1q
0m
1[
0O
1l
0h
1l!
0s!
13!
0;!
00!
1%!
1w
1?!
0_!
1M
1<!
1|
1r!
1b!
1t!
1!!
0$!
0-"
1c!
1T
1J!
1m!
0t!
14!
0<!
1&!
1@!
0i!
1U
1u!
1d!
1*"
1"!
0%!
17"
16"
15"
02"
0u!
1*!
1A!
0l!
1v!
1k!
12!
0&!
1C
1B
1A
1>
0v!
0m!
1l!
03!
0*!
1m!
04!
#20000
0#
0\
1E
0'"
0("
#30000
1#
1\
0E
1'"
1("
1+"
1;"
1@"
1="
1j
0i
1&"
1%"
1""
1Q!
1O!
1/"
0p
1,"
0*"
0"!
1m
1O
0=
08"
05"
12"
0G!
0r
0W
1-"
1|!
1u!
1e!
0@!
1&!
0?!
1<!
13!
15
12
1-
06
0/
0J!
0w
0k!
06"
14"
1}!
1v!
1f!
0A!
1*!
1@!
14!
0D
0A
0>
0&!
0l!
1A!
0B
1@
0*!
0m!
#40000
0#
0\
1E
0'"
0("
#50000
1#
1\
0E
1'"
1("
0+"
1<"
1:"
0;"
19"
0@"
1>"
1k
0j
0""
1~!
0Q!
0O!
1M!
1L!
1."
0-"
1w!
0l
0[
1Y
0/"
0q
1p
1=
1/"
18"
16"
15"
04"
02"
0v!
0A!
04!
0c!
1r
1W
0T
1G!
02
10
0-
1+
1*
1/
08"
05"
12"
0d!
1w
1k!
0U
1D
1B
1A
0@
1>
0e!
1&!
1l!
0|!
0D
0A
0>
#60000
0#
0\
1E
0'"
0("
#70000
1#
1\
0E
1'"
1("
0:"
0="
0>"
0k
1a
0%"
1$"
0~!
0M!
0L!
10"
0."
1-"
0w!
1l
1[
0Y
1q
11"
0/"
06"
14"
0}!
1v!
1m!
0f!
1A!
14!
1*!
1J!
1c!
1T
05
14
00
0+
0*
07"
16"
15"
04"
02"
1d!
1U
0B
1@
1e!
1|!
0C
1B
1A
0@
1>
1f!
1}!
#80000
0#
0\
1E
0'"
0("
#90000
1#
1\
0E
1'"
1("
1:"
1;"
1@"
1="
1>"
1?"
1b
0a
0$"
1#"
1""
1!"
1Q!
1N!
1M!
1L!
0,"
1"!
0Z
0O
00"
0q
0-"
0|!
0u!
0k!
0e!
0@!
02!
0&!
0[
0c!
0T
04
13
12
11
1,
1+
1*
0/
05"
13"
12"
0}!
0v!
0l!
0f!
0A!
03!
0*!
0J!
0d!
0U
0m!
04!
0A
1?
0>
#100000
0#
0\
1E
0'"
0("
#110000
1#
1\
0E
1'"
1("
0<"
0:"
0;"
09"
0@"
0="
0>"
0?"
1c
0b
0&"
0#"
0""
0!"
0Q!
0N!
0M!
0L!
1."
1d
1,"
0"!
1Z
1O
1/"
1-"
1u!
1k!
1@!
12!
1&!
1[
03
02
01
0,
0+
0*
16
1/
06"
1v!
1l!
1A!
13!
1*!
1J!
1m!
14!
0B
#120000
0#
0\
1E
0'"
0("
#130000
1#
1\
0E
1'"
1("
1:"
1;"
1@"
1="
1>"
1?"
1e
0c
1&"
1!"
1Q!
1N!
1M!
1L!
10"
0,"
1I!
0p
0f
01"
0d
11"
0-"
0G!
17"
14"
03"
11
1,
1+
1*
06
0/
18"
16"
15"
04"
1C
1@
0?
1D
1B
1A
0@
#140000
0#
0\
1E
0'"
0("
#150000
1#
1\
0E
1'"
1("
0g
0e
1o!
1h!
17!
1.!
1)!
0l
1h
0[
00"
0."
1,"
1p
1f
01"
0/"
1-"
1G!
07"
06"
05"
0C
0B
0A
#160000
0#
0\
1E
0'"
0("
#170000
1#
1\
0E
1'"
1("
1i
1g
0,"
1*"
1"!
1q
0m
1[
0O
0o!
0h!
0I!
07!
0.!
0)!
1l
0h
0-"
0u!
0@!
0&!
1c!
1T
1d!
1?!
0<!
03!
1U
17"
16"
15"
02"
0v!
0A!
0*!
1@!
04!
1A!
1C
1B
1A
1>
#180000
0#
0\
1E
0'"
0("
#190000
1#
1\
0E
1'"
1("
1+"
0:"
0>"
0?"
1j
0i
1%"
1""
0!"
1O!
0N!
0M!
0L!
1/"
0p
1,"
0*"
0"!
1m
1O
0=
08"
05"
12"
0G!
0r
0W
1-"
1|!
1u!
1e!
0@!
1&!
0?!
1<!
13!
15
12
01
1-
0,
0+
0*
0J!
0w
0k!
06"
14"
1}!
1v!
1f!
0A!
1*!
1@!
14!
0D
0A
0>
0&!
0l!
1A!
0B
1@
0*!
0m!
